\relax 
\providecommand\hyper@newdestlabel[2]{}
\providecommand\HyperFirstAtBeginDocument{\AtBeginDocument}
\HyperFirstAtBeginDocument{\ifx\hyper@anchor\@undefined
\global\let\oldcontentsline\contentsline
\gdef\contentsline#1#2#3#4{\oldcontentsline{#1}{#2}{#3}}
\global\let\oldnewlabel\newlabel
\gdef\newlabel#1#2{\newlabelxx{#1}#2}
\gdef\newlabelxx#1#2#3#4#5#6{\oldnewlabel{#1}{{#2}{#3}}}
\AtEndDocument{\ifx\hyper@anchor\@undefined
\let\contentsline\oldcontentsline
\let\newlabel\oldnewlabel
\fi}
\fi}
\global\let\hyper@last\relax 
\gdef\HyperFirstAtBeginDocument#1{#1}
\providecommand\HyField@AuxAddToFields[1]{}
\providecommand\HyField@AuxAddToCoFields[2]{}
\@writefile{nav}{\headcommand {\slideentry {0}{0}{1}{1/1}{}{0}}}
\@writefile{nav}{\headcommand {\beamer@framepages {1}{1}}}
\@writefile{toc}{\beamer@sectionintoc {1}{Chapter 1: Introduction}{2}{0}{1}}
\@writefile{nav}{\headcommand {\beamer@sectionpages {1}{1}}}
\@writefile{nav}{\headcommand {\beamer@subsectionpages {1}{1}}}
\@writefile{nav}{\headcommand {\sectionentry {1}{Chapter 1: Introduction}{2}{Chapter 1: Introduction}{0}}}
\@writefile{toc}{\beamer@subsectionintoc {1}{1}{Chapters overview - part I.}{2}{0}{1}}
\@writefile{nav}{\headcommand {\beamer@subsectionpages {2}{1}}}
\@writefile{nav}{\headcommand {\beamer@subsectionentry {0}{1}{1}{2}{Chapters overview - part I.}}}
\@writefile{nav}{\headcommand {\slideentry {1}{1}{1}{2/2}{Chapters overview - part I.}{0}}}
\@writefile{nav}{\headcommand {\beamer@framepages {2}{2}}}
\@writefile{toc}{\beamer@subsectionintoc {1}{2}{Key insights}{3}{0}{1}}
\@writefile{nav}{\headcommand {\beamer@subsectionpages {2}{2}}}
\@writefile{nav}{\headcommand {\beamer@subsectionentry {0}{1}{2}{3}{Key insights}}}
\@writefile{nav}{\headcommand {\slideentry {1}{2}{1}{3/3}{Key insights}{0}}}
\@writefile{nav}{\headcommand {\beamer@framepages {3}{3}}}
\@writefile{toc}{\beamer@subsectionintoc {1}{3}{Data representation}{4}{0}{1}}
\@writefile{nav}{\headcommand {\beamer@subsectionpages {3}{3}}}
\@writefile{nav}{\headcommand {\beamer@subsectionentry {0}{1}{3}{4}{Data representation}}}
\@writefile{nav}{\headcommand {\slideentry {1}{3}{1}{4/4}{Data representation}{0}}}
\@writefile{nav}{\headcommand {\beamer@framepages {4}{4}}}
\@writefile{toc}{\beamer@subsectionintoc {1}{4}{History}{5}{0}{1}}
\@writefile{nav}{\headcommand {\beamer@subsectionpages {4}{4}}}
\@writefile{nav}{\headcommand {\beamer@subsectionentry {0}{1}{4}{5}{History}}}
\@writefile{nav}{\headcommand {\slideentry {1}{4}{1}{5/5}{History}{0}}}
\@writefile{nav}{\headcommand {\beamer@framepages {5}{5}}}
\@writefile{toc}{\beamer@sectionintoc {2}{Chapter 2: Linear Algebra}{6}{0}{2}}
\@writefile{nav}{\headcommand {\beamer@sectionpages {2}{5}}}
\@writefile{nav}{\headcommand {\beamer@subsectionpages {5}{5}}}
\@writefile{nav}{\headcommand {\sectionentry {2}{Chapter 2: Linear Algebra}{6}{Chapter 2: Linear Algebra}{0}}}
\@writefile{toc}{\beamer@subsectionintoc {2}{1}{Basic definitions}{6}{0}{2}}
\@writefile{nav}{\headcommand {\beamer@subsectionpages {6}{5}}}
\@writefile{nav}{\headcommand {\beamer@subsectionentry {0}{2}{1}{6}{Basic definitions}}}
\@writefile{nav}{\headcommand {\slideentry {2}{1}{1}{6/6}{Basic definitions}{0}}}
\@writefile{nav}{\headcommand {\beamer@framepages {6}{6}}}
\@writefile{nav}{\headcommand {\slideentry {2}{1}{2}{7/7}{Basic definitions}{0}}}
\@writefile{nav}{\headcommand {\beamer@framepages {7}{7}}}
\@writefile{toc}{\beamer@subsectionintoc {2}{2}{Operations with matrices}{8}{0}{2}}
\@writefile{nav}{\headcommand {\beamer@subsectionpages {6}{7}}}
\@writefile{nav}{\headcommand {\beamer@subsectionentry {0}{2}{2}{8}{Operations with matrices}}}
\@writefile{nav}{\headcommand {\slideentry {2}{2}{1}{8/8}{Operations with matrices}{0}}}
\@writefile{nav}{\headcommand {\beamer@framepages {8}{8}}}
\@writefile{nav}{\headcommand {\slideentry {2}{2}{2}{9/9}{Operations with matrices}{0}}}
\@writefile{nav}{\headcommand {\beamer@framepages {9}{9}}}
\@writefile{nav}{\headcommand {\slideentry {2}{2}{3}{10/10}{Operations with matrices}{0}}}
\@writefile{nav}{\headcommand {\beamer@framepages {10}{10}}}
\@writefile{toc}{\beamer@subsectionintoc {2}{3}{Putting it all together}{11}{0}{2}}
\@writefile{nav}{\headcommand {\beamer@subsectionpages {8}{10}}}
\@writefile{nav}{\headcommand {\beamer@subsectionentry {0}{2}{3}{11}{Putting it all together}}}
\@writefile{nav}{\headcommand {\slideentry {2}{3}{1}{11/11}{Putting it all together}{0}}}
\@writefile{nav}{\headcommand {\beamer@framepages {11}{11}}}
\@writefile{toc}{\beamer@sectionintoc {3}{Chapter 3: Probability and Information Theory}{12}{0}{3}}
\@writefile{nav}{\headcommand {\beamer@sectionpages {6}{11}}}
\@writefile{nav}{\headcommand {\beamer@subsectionpages {11}{11}}}
\@writefile{nav}{\headcommand {\sectionentry {3}{Chapter 3: Probability and Information Theory}{12}{Chapter 3: Probability and Information Theory}{0}}}
\@writefile{toc}{\beamer@subsectionintoc {3}{1}{Basic probability definitions}{12}{0}{3}}
\@writefile{nav}{\headcommand {\beamer@subsectionpages {12}{11}}}
\@writefile{nav}{\headcommand {\beamer@subsectionentry {0}{3}{1}{12}{Basic probability definitions}}}
\@writefile{nav}{\headcommand {\slideentry {3}{1}{1}{12/12}{Basic probability definitions}{0}}}
\@writefile{nav}{\headcommand {\beamer@framepages {12}{12}}}
\@writefile{nav}{\headcommand {\slideentry {3}{1}{2}{13/13}{Basic probability definitions}{0}}}
\@writefile{nav}{\headcommand {\beamer@framepages {13}{13}}}
\@writefile{nav}{\headcommand {\slideentry {3}{1}{3}{14/14}{Basic probability definitions}{0}}}
\@writefile{nav}{\headcommand {\beamer@framepages {14}{14}}}
\@writefile{nav}{\headcommand {\slideentry {3}{1}{4}{15/15}{Basic probability definitions}{0}}}
\@writefile{nav}{\headcommand {\beamer@framepages {15}{15}}}
\@writefile{toc}{\beamer@subsectionintoc {3}{2}{Basic information theory definitions}{16}{0}{3}}
\@writefile{nav}{\headcommand {\beamer@subsectionpages {12}{15}}}
\@writefile{nav}{\headcommand {\beamer@subsectionentry {0}{3}{2}{16}{Basic information theory definitions}}}
\@writefile{nav}{\headcommand {\slideentry {3}{2}{1}{16/16}{Basic information theory definitions}{0}}}
\@writefile{nav}{\headcommand {\beamer@framepages {16}{16}}}
\@writefile{toc}{\beamer@subsectionintoc {3}{3}{Probabilistic models}{17}{0}{3}}
\@writefile{nav}{\headcommand {\beamer@subsectionpages {16}{16}}}
\@writefile{nav}{\headcommand {\beamer@subsectionentry {0}{3}{3}{17}{Probabilistic models}}}
\@writefile{nav}{\headcommand {\slideentry {3}{3}{1}{17/17}{Probabilistic models}{0}}}
\@writefile{nav}{\headcommand {\beamer@framepages {17}{17}}}
\@writefile{nav}{\headcommand {\slideentry {3}{3}{2}{18/18}{Probabilistic models}{0}}}
\@writefile{nav}{\headcommand {\beamer@framepages {18}{18}}}
\@writefile{toc}{\beamer@sectionintoc {4}{Chapter 4: Numerical Computation}{19}{0}{4}}
\@writefile{nav}{\headcommand {\beamer@sectionpages {12}{18}}}
\@writefile{nav}{\headcommand {\beamer@subsectionpages {17}{18}}}
\@writefile{nav}{\headcommand {\sectionentry {4}{Chapter 4: Numerical Computation}{19}{Chapter 4: Numerical Computation}{0}}}
\@writefile{toc}{\beamer@subsectionintoc {4}{1}{Basic terminology}{19}{0}{4}}
\@writefile{nav}{\headcommand {\beamer@subsectionpages {19}{18}}}
\@writefile{nav}{\headcommand {\beamer@subsectionentry {0}{4}{1}{19}{Basic terminology}}}
\@writefile{nav}{\headcommand {\slideentry {4}{1}{1}{19/19}{Basic terminology}{0}}}
\@writefile{nav}{\headcommand {\beamer@framepages {19}{19}}}
\@writefile{toc}{\beamer@subsectionintoc {4}{2}{Optimization}{20}{0}{4}}
\@writefile{nav}{\headcommand {\beamer@subsectionpages {19}{19}}}
\@writefile{nav}{\headcommand {\beamer@subsectionentry {0}{4}{2}{20}{Optimization}}}
\@writefile{nav}{\headcommand {\slideentry {4}{2}{1}{20/20}{Optimization}{0}}}
\@writefile{nav}{\headcommand {\beamer@framepages {20}{20}}}
\@writefile{nav}{\headcommand {\slideentry {4}{2}{2}{21/21}{Optimization}{0}}}
\@writefile{nav}{\headcommand {\beamer@framepages {21}{21}}}
\@writefile{nav}{\headcommand {\slideentry {4}{2}{3}{22/22}{Optimization}{0}}}
\@writefile{nav}{\headcommand {\beamer@framepages {22}{22}}}
\@writefile{nav}{\headcommand {\slideentry {4}{2}{4}{23/23}{Optimization}{0}}}
\@writefile{nav}{\headcommand {\beamer@framepages {23}{23}}}
\@writefile{toc}{\beamer@subsectionintoc {4}{3}{Useful formulas}{24}{0}{4}}
\@writefile{nav}{\headcommand {\beamer@subsectionpages {20}{23}}}
\@writefile{nav}{\headcommand {\beamer@subsectionentry {0}{4}{3}{24}{Useful formulas}}}
\@writefile{nav}{\headcommand {\slideentry {4}{3}{1}{24/24}{Useful formulas}{0}}}
\@writefile{nav}{\headcommand {\beamer@framepages {24}{24}}}
\@writefile{toc}{\beamer@sectionintoc {5}{Chapter 5: Machine Learning Basics}{25}{0}{5}}
\@writefile{nav}{\headcommand {\beamer@sectionpages {19}{24}}}
\@writefile{nav}{\headcommand {\beamer@subsectionpages {24}{24}}}
\@writefile{nav}{\headcommand {\sectionentry {5}{Chapter 5: Machine Learning Basics}{25}{Chapter 5: Machine Learning Basics}{0}}}
\@writefile{toc}{\beamer@subsectionintoc {5}{1}{Basic introduction}{25}{0}{5}}
\@writefile{nav}{\headcommand {\beamer@subsectionpages {25}{24}}}
\@writefile{nav}{\headcommand {\beamer@subsectionentry {0}{5}{1}{25}{Basic introduction}}}
\@writefile{nav}{\headcommand {\slideentry {5}{1}{1}{25/25}{Basic introduction}{0}}}
\@writefile{nav}{\headcommand {\beamer@framepages {25}{25}}}
\@writefile{nav}{\headcommand {\slideentry {5}{1}{2}{26/26}{Basic introduction}{0}}}
\@writefile{nav}{\headcommand {\beamer@framepages {26}{26}}}
\@writefile{nav}{\headcommand {\slideentry {5}{1}{3}{27/27}{Basic introduction}{0}}}
\@writefile{nav}{\headcommand {\beamer@framepages {27}{27}}}
\@writefile{nav}{\headcommand {\slideentry {5}{1}{4}{28/28}{Basic introduction}{0}}}
\@writefile{nav}{\headcommand {\beamer@framepages {28}{28}}}
\@writefile{toc}{\beamer@subsectionintoc {5}{2}{Model assessment}{29}{0}{5}}
\@writefile{nav}{\headcommand {\beamer@subsectionpages {25}{28}}}
\@writefile{nav}{\headcommand {\beamer@subsectionentry {0}{5}{2}{29}{Model assessment}}}
\@writefile{nav}{\headcommand {\slideentry {5}{2}{1}{29/29}{Model assessment}{0}}}
\@writefile{nav}{\headcommand {\beamer@framepages {29}{29}}}
\@writefile{nav}{\headcommand {\slideentry {5}{2}{2}{30/30}{Model assessment}{0}}}
\@writefile{nav}{\headcommand {\beamer@framepages {30}{30}}}
\@writefile{nav}{\headcommand {\slideentry {5}{2}{3}{31/31}{Model assessment}{0}}}
\@writefile{nav}{\headcommand {\beamer@framepages {31}{31}}}
\@writefile{nav}{\headcommand {\slideentry {5}{2}{4}{32/32}{Model assessment}{0}}}
\@writefile{nav}{\headcommand {\beamer@framepages {32}{32}}}
\@writefile{toc}{\beamer@subsectionintoc {5}{3}{The end}{33}{0}{5}}
\@writefile{nav}{\headcommand {\beamer@subsectionpages {29}{32}}}
\@writefile{nav}{\headcommand {\beamer@subsectionentry {0}{5}{3}{33}{The end}}}
\@writefile{nav}{\headcommand {\slideentry {5}{3}{1}{33/33}{The end}{0}}}
\@writefile{nav}{\headcommand {\beamer@framepages {33}{33}}}
\@writefile{nav}{\headcommand {\beamer@partpages {1}{33}}}
\@writefile{nav}{\headcommand {\beamer@subsectionpages {33}{33}}}
\@writefile{nav}{\headcommand {\beamer@sectionpages {25}{33}}}
\@writefile{nav}{\headcommand {\beamer@documentpages {33}}}
\@writefile{nav}{\headcommand {\gdef \inserttotalframenumber {33}}}
